## Interface: 90001
## LoadOnDemand: 1
## Title: Lib: Babble-Inventory-3.0
## Notes: A library to help with localization of item types and subtypes.
## Notes-esES: Una libreria para ayudar con la traduccion de tipos y subtipos de objetos.
## Author: ckknight
## X-eMail: ckknight@gmail.com
## X-Category: Library
## X-License: MIT

LibStub\LibStub.lua
lib.xml
